{
  "type": "FeatureCollection",
  "features": [
    {       "type": "Feature",       "id": 1,       "properties": {         "sigla": "Rede Bico Agroecológico",             "nome": "Rede Bico Agroecológico",         "fundacao": "Décadas de 1970 e 1980",         "n_municipios": "",         "n_urs": "60",         "n_organizacoes": "15",         "ts": "Cisterna de Placas Integrada à Horta e Criação de Galinhas"       },       "geometry": {         "type": "Point",         "coordinates": [           -47.998,-5.539]}     },
    {       "type": "Feature",       "id": 2,       "properties": {         "sigla": "Rede AGRECO",             "nome": "Rede de Desenvolvimento Sustentável e Solidário das Encostas da Serra Geral de Santa Catarina - Rede AGRECO",         "fundacao": "1996",         "n_municipios": "",         "n_urs": "9",         "n_organizacoes": "27",         "ts": "Cadeia produtiva de frango orgânico"       },       "geometry": {         "type": "Point",         "coordinates": [           -49.127,-27.940]}     },
    {       "type": "Feature",       "id": 3,       "properties": {         "sigla": "RIS",             "nome": "Rede de Intercambio de Sementes - RIS",         "fundacao": "1990",         "n_municipios": "",         "n_urs": "61",         "n_organizacoes": "10",         "ts": "Roçados comunitários agroecológicos"       },       "geometry": {         "type": "Point",         "coordinates": [           -40.04,-3.43]}     },
    {       "type": "Feature",       "id": 4,       "properties": {         "sigla": "REPASPI",             "nome": "Rede de Produção Agroecológica do Semiárido Piauiense - REPASPI",         "fundacao": "2014",         "n_municipios": "",         "n_urs": "216",         "n_organizacoes": "14",         "ts": "Cadeia do algodão agroecológico"       },       "geometry": {         "type": "Point",         "coordinates": [           -42.669,-8.984]}     },
    {       "type": "Feature",       "id": 5,       "properties": {         "sigla": "Rede ECOVIDA",             "nome": "Rede Ecovida de Agroecologia do Rio Grande do Sul",         "fundacao": "1998",         "n_municipios": "",         "n_urs": "18",         "n_organizacoes": "63",         "ts": "Encontro de Sabores: resgatando Sabores, construindo Saberes"       },       "geometry": {         "type": "Point",         "coordinates": [           -53.16,-31.33]}     },
    {       "type": "Feature",       "id": 6,       "properties": {         "sigla": "Rede UAI",             "nome": "Rede UAI Vale do Urucuia",         "fundacao": "2014",         "n_municipios": "",         "n_urs": "53",         "n_organizacoes": "27",         "ts": "Assistência técnica e extensão rural, por meio de Agentes de Desenvolvimento Regional Sustentável (ATER/ADRS)"       },       "geometry": {         "type": "Point",         "coordinates": [           -46.10,-15.92]}     },
    {       "type": "Feature",       "id": 7,       "properties": {         "sigla": "Rede Camponesa de Agroecologia",             "nome": "Rede Camponesa de Agroecologia",         "fundacao": "2000 e reforçada a partir de 2014",         "n_municipios": "",         "n_urs": "4",         "n_organizacoes": "39",         "ts": "Programa Camponês: programa de estruturação da produção, objetivando a qualidade de vida dos(as) camponeses(as), a construção da soberania e segurança alimentar"       },       "geometry": {         "type": "Point",         "coordinates": [           -53.00,-28.81]}     },
    {       "type": "Feature",       "id": 8,       "properties": {         "sigla": "Rede Leste de MG",             "nome": "Rede Agroecológica do Leste de Minas Gerais  ",         "fundacao": "1986",         "n_municipios": "",         "n_urs": "105",         "n_organizacoes": "38",         "ts": "Dinâmica organizativa para a produção e comercialização agroecológica: a experiência do GPOC/OPL"       },       "geometry": {         "type": "Point",         "coordinates": [           -41.870,-19.670]}     },
    {       "type": "Feature",       "id": 9,       "properties": {         "sigla": "REMA",             "nome": "Rede Maniva de Agroecologia - REMA",         "fundacao": "2010",         "n_municipios": "",         "n_urs": "58",         "n_organizacoes": "20",         "ts": "A experiência de formação do Sistema Participativo de Garantia (SPG) Maniva"       },       "geometry": {         "type": "Point",         "coordinates": [           -60.03,-2.14]}     },
    {       "type": "Feature",       "id": 10,       "properties": {         "sigla": "Rede Leste Paulista",             "nome": "Rede de Agroecologia do Leste Paulista - Alta Mogiana",         "fundacao": "2005",         "n_municipios": "",         "n_urs": "12",         "n_organizacoes": "10",         "ts": "Sistema Participativo de Garantia (SPG)"       },       "geometry": {         "type": "Point",         "coordinates": [           -46.780,-22.550]}     },
    {       "type": "Feature",       "id": 11,       "properties": {         "sigla": "Rede Cantuquiriguaçu",             "nome": "Rede de Agroecologia do Território da Cantuquiriguaçu",         "fundacao": "2003",         "n_municipios": "",         "n_urs": "55",         "n_organizacoes": "21",         "ts": "Mutirões e Agroecologia: ressignificando trabalho e a coletividade"       },       "geometry": {         "type": "Point",         "coordinates": [           -52.491,-25.228]}     },
    {       "type": "Feature",       "id": 12,       "properties": {         "sigla": "Rede GIAS",             "nome": "GIAS - Grupo de Intercâmbio de Agroecologia",         "fundacao": "1999",         "n_municipios": "",         "n_urs": "10",         "n_organizacoes": "13",         "ts": "Banco de Informações sobre Sementes - BIS"       },       "geometry": {         "type": "Point",         "coordinates": [           -57.76,-16.59]}     },
    {       "type": "Feature",       "id": 13,       "properties": {         "sigla": "Rede Sabor Natural do Sertão",             "nome": "Rede Sabor Natural do Sertão",         "fundacao": "2003",         "n_municipios": "",         "n_urs": "11",         "n_organizacoes": "10",         "ts": "Associação dos Apicultores de Sento Sé - AAPSSÉ"       },       "geometry": {         "type": "Point",         "coordinates": [           -41.82,-10.58]}     },
    {       "type": "Feature",       "id": 14,       "properties": {         "sigla": "RedEncauchados",             "nome": "Rede Criativa e Solidária Poloprobio/Encauchados - RedEncauchados",         "fundacao": "2002",         "n_municipios": "",         "n_urs": "30",         "n_organizacoes": "54",         "ts": "Encauchados de vegetais: a nova borracha amazônica, orgânica na origem"       },       "geometry": {         "type": "Point",         "coordinates": [           -53.26,-0.39]}     },
    {       "type": "Feature",       "id": 15,       "properties": {         "sigla": "Rede de Agricultores Experimentadores do Araripe",             "nome": "Rede de Agricultores Experimentadores do Araripe",         "fundacao": "1998",         "n_municipios": "",         "n_urs": "30",         "n_organizacoes": "21",         "ts": "Empório Kaeteh"       },       "geometry": {         "type": "Point",         "coordinates": [           -41.01,-7.68]}     },
    {       "type": "Feature",       "id": 16,       "properties": {         "sigla": "Rede Trijunção",             "nome": "Rede Agroecológica-Extrativista Trijunção do Cerrado Central",         "fundacao": "2014",         "n_municipios": "",         "n_urs": "216",         "n_organizacoes": "27",         "ts": "Experiência agroflorestal no sertão de Minas Gerais"       },       "geometry": {         "type": "Point",         "coordinates": [           -45.60,-14.06]}     },
    {       "type": "Feature",       "id": 17,       "properties": {         "sigla": "Rede APOMS",             "nome": "Rede de agroecologia da Associação dos Produtores Orgânicos do Mato Grosso do Sul (APOMS)",         "fundacao": "2006",         "n_municipios": "",         "n_urs": "12",         "n_organizacoes": "24",         "ts": "Entreposto de Produtos Agroecológicos"       },       "geometry": {         "type": "Point",         "coordinates": [           -56.24,-20.70]}     },
    {       "type": "Feature",       "id": 18,       "properties": {         "sigla": "Rede da Zona da Mata",             "nome": "Rede de Agroecologia da Zona da Mata de Minas Gerais",         "fundacao": "Décadas de 1970 e 1980",         "n_municipios": "",         "n_urs": "41",         "n_organizacoes": "42",         "ts": "Caderneta agroecológica: empoderando mulheres, fortalecendo a agroecologia"       },       "geometry": {         "type": "Point",         "coordinates": [           -42.504,-20.707]}     },
    {       "type": "Feature",       "id": 19,       "properties": {         "sigla": "Rede Espaço Agroecológico",             "nome": "Rede Espaço Agroecológico",         "fundacao": "Entre 1995 e 1997",         "n_municipios": "",         "n_urs": "18",         "n_organizacoes": "7",         "ts": "Gestão da Rede Espaço Agroecológico: uma metodologia de construção da autonomia"       },       "geometry": {         "type": "Point",         "coordinates": [           -35.267,-7.917]}     },
    {       "type": "Feature",       "id": 20,       "properties": {         "sigla": "Rede Cerrado",             "nome": "Rede de Comercialização Solidária de Agricultores Familiares e Extrativistas do Cerrado",         "fundacao": "2000",         "n_municipios": "",         "n_urs": "75",         "n_organizacoes": "15",         "ts": "Hortas agroecológicas"       },       "geometry": {         "type": "Point",         "coordinates": [           -45.06,-17.37]}     },
    {       "type": "Feature",       "id": 21,       "properties": {         "sigla": "Rede do Sertão Mineiro",             "nome": "Rede Sociotécnica de Agroecologia do Sertão Norte Mineiro",         "fundacao": "Final dos anos 1980 ",         "n_municipios": "",         "n_urs": "10",         "n_organizacoes": "7",         "ts": "Casas de Medicina Alternativa"       },       "geometry": {         "type": "Point",         "coordinates": [           -43.58,-15.71]}     },
    {       "type": "Feature",       "id": 22,       "properties": {         "sigla": "Rede Biodinâmica",             "nome": "Rede de Agricultura Biodinâmica",         "fundacao": "Década de 1980",         "n_municipios": "",         "n_urs": "8",         "n_organizacoes": "4",         "ts": "Produção, conservação e melhoramento participativo de sementes de hortaliças e grãos em manejo biodinâmico"       },       "geometry": {         "type": "Point",         "coordinates": [           -48.456,-23.033]}     },
    {       "type": "Feature",       "id": 23,       "properties": {         "sigla": "Rede Borborema",             "nome": "Rede Agroecologia na Borborema",         "fundacao": "Década de 1960",         "n_municipios": "",         "n_urs": "221",         "n_organizacoes": "62",         "ts": "Rede de unidades de beneficiamento e armazenamento de forragem"       },       "geometry": {         "type": "Point",         "coordinates": [           -35.850,-7.085]}     },
    {       "type": "Feature",       "id": 24,       "properties": {         "sigla": "Rede Terra",             "nome": "Rede Terra",         "fundacao": "1998",         "n_municipios": "",         "n_urs": "75",         "n_organizacoes": "13",         "ts": "Quintais produtivos agroecológicos"       },       "geometry": {         "type": "Point",         "coordinates": [           -47.67,-16.57]}     },
    {       "type": "Feature",       "id": 25,       "properties": {         "sigla": "Rede de Cultivos Agroecológicos",             "nome": "Rede de Cultivos Agroecológicos",         "fundacao": "1993",         "n_municipios": "",         "n_urs": "27",         "n_organizacoes": "18",         "ts": "Feira agroecológica de Cajazeiras"       },       "geometry": {         "type": "Point",         "coordinates": [           -38.063,-6.664]}     }
  ]
}
